DV 3 demo
…
Since we’re using dplyr, let’s get this long rather than wide.

anscombe_long <- anscombe %>%
  pivot_longer(
    everything(),
    names_to = c(".value", "set"),
    names_pattern = "(.)(.)"
  ) |> 
  arrange(set)

anscombe_long

# A tibble: 44 × 3
   set       x     y
   <chr> <dbl> <dbl>
 1 1        10  8.04
 2 1         8  6.95
 3 1        13  7.58
 4 1         9  8.81
 5 1        11  8.33
 6 1        14  9.96
 7 1         6  7.24
 8 1         4  4.26
 9 1        12 10.8 
10 1         7  4.82
# ℹ 34 more rows
…
