HW 4
…
nfl_data <- read_csv("https://raw.githubusercontent.com/NicolasRestrep/223_course/main/Data/nfl_salaries.csv")

Dataset was read in from the link as instructed.

Question 2

tidy_nfl_data_pivot <- nfl_data %>%
  pivot_longer(cols = "Cornerback":"Wide Receiver",
               names_to = "position",
               values_to = "salary in $M")
tidy_nfl_data_pivot <- tidy_nfl_data_pivot %>% 
  mutate(`salary in $M` = (`salary in $M`/(10^6)))
tidy_nfl_data_pivot

# A tibble: 8,000 × 3
    year position          `salary in $M`
   <dbl> <chr>                      <dbl>
 1  2011 Cornerback                 11.3 
 2  2011 Defensive Lineman          17.8 
 3  2011 Linebacker                 16.4 
 4  2011 Offensive Lineman          16.0 
 5  2011 Quarterback                17.2 
 6  2011 Running Back               13.0 
 7  2011 Safety                      8.87
 8  2011 Special Teamer              4.3 
 9  2011 Tight End                   8.73
10  2011 Wide Receiver              16.2 
# ℹ 7,990 more rows
…
I notice that there are a lot of quarterbacks who earn on the low end of the distribution every year, and then a few outliers earning at a high level. This makes sense to me, because every team has two backup quarterbacks earning a small salary, and one main option earning at a high level.

Question 4

average_salary_millions <- tidy_nfl_data_pivot %>% 
  group_by(position, year) %>% 
  summarize(average_in_millions = mean(`salary in $M`, na.rm = TRUE))

`summarise()` has grouped output by 'position'. You can override using the
`.groups` argument.

average_salary_millions

# A tibble: 80 × 3
# Groups:   position [10]
   position           year average_in_millions
   <chr>             <dbl>               <dbl>
 1 Cornerback         2011                3.04
 2 Cornerback         2012                3.13
 3 Cornerback         2013                2.90
 4 Cornerback         2014                3.04
 5 Cornerback         2015                3.76
 6 Cornerback         2016                4.20
 7 Cornerback         2017                4.13
 8 Cornerback         2018                4.66
 9 Defensive Lineman  2011                4.31
10 Defensive Lineman  2012                4.69
# ℹ 70 more rows
…
