HW-MD05
…
Some of the other languages have more piece-wise distributions than English. That is, they are less continuous. However, I do see that most languages have a pretty solid block of channels at the low end of the spectrum.

Question 5

twitch_data <- twitch_data %>% 
  mutate(language = as.factor(language), 
         language = relevel(language, ref = "English"))

fit2 <- lm(average_viewers ~ language,
           data = twitch_data)
broom::tidy(fit2)

# A tibble: 21 × 5
   term              estimate std.error statistic  p.value
   <chr>                <dbl>     <dbl>     <dbl>    <dbl>
 1 (Intercept)          5113.      385.    13.3   3.47e-37
 2 languageArabic        569.     3808.     0.150 8.81e- 1
 3 languageChinese     -1688.     1594.    -1.06  2.90e- 1
 4 languageCzech       -3285.     3480.    -0.944 3.45e- 1
 5 languageFinnish     -4086.     8480.    -0.482 6.30e- 1
 6 languageFrench      -1606.     1111.    -1.45  1.49e- 1
 7 languageGerman       -835.     1270.    -0.657 5.11e- 1
 8 languageGreek       -3152.     8480.    -0.372 7.10e- 1
 9 languageHungarian   -2972.     6002.    -0.495 6.21e- 1
10 languageItalian     -2907.     2090.    -1.39  1.65e- 1
# ℹ 11 more rows
…
